{
  "hotels": [
    {
      "id": 231,
      "name": "udupi",
      "city": "bangalore",
      "price": 140,
      "rating": 3.9
    },
    {
      "id": 298,
      "name": "Pubg hotel",
      "city": "Delhi",
      "price": 120,
      "rating": 3.8
    },
    {
      "id": 489,
      "name": "chetana",
      "city": "ranchi",
      "price": 200,
      "rating": 2.7
    },
    {
      "id": 987,
      "name": "meera",
      "city": "jodhpur",
      "price": 90,
      "rating": 4.5
    },
    {
      "id": 564,
      "name": "meghna",
      "city": "lucknow",
      "price": 80,
      "rating": 4.4
    },
    {
      "id": 121,
      "name": "nandan",
      "city": "berhampur",
      "price": 100,
      "rating": 5
    }
  ],
  "orders": [
    {
      "hotelName": "udupi",
      "price": 200,
      "orderId": 996,
      "phone": "9090353482",
      "name": "subha panda",
      "id": 1
    },
    {
      "orderId": 136,
      "name": "suhrit kumar",
      "hotelName": "udupi",
      "phone": 9090,
      "price": 200,
      "id": 2
    },
    {
      "orderId": 459,
      "name": "subha ",
      "hotelName": "meera",
      "phone": 9090,
      "price": 200,
      "id": 3
    },
    {
      "orderId": 705,
      "name": " ",
      "hotelName": "meera",
      "phone": 9090,
      "price": 200,
      "id": 4
    },
    {
      "orderId": 798,
      "name": " ddd",
      "hotelName": "meera",
      "phone": 9090,
      "price": 200,
      "id": 5
    },
    {
      "orderId": 85,
      "name": "subha ",
      "hotelName": "meera",
      "phone": 9090,
      "price": 200,
      "id": 6
    }
  ]
}